-------------------------------------------------------------------------------
Test set: com.shpp.pzobenko.stopwatch.StopWatchTest
-------------------------------------------------------------------------------
Tests run: 1, Failures: 0, Errors: 0, Skipped: 0, Time elapsed: 0.007 s - in com.shpp.pzobenko.stopwatch.StopWatchTest
