com\shpp\pzobenko\dtogeneratingandvalidation\SQLCommandWriter.class
com\shpp\pzobenko\Level4.class
com\shpp\pzobenko\constandprop\Prop.class
com\shpp\pzobenko\constandprop\Constants.class
com\shpp\pzobenko\validator\addresses\ValidateDTOAddress.class
com\shpp\pzobenko\validator\category\ValidateDTOCategory.class
com\shpp\pzobenko\jdbc\Connection.class
com\shpp\pzobenko\dtogeneratingandvalidation\DTOGenerating.class
com\shpp\pzobenko\validator\nameofgoods\ValidateDTOName.class
com\shpp\pzobenko\stopwatch\StopWatch.class
com\shpp\pzobenko\dtogeneratingandvalidation\CreateTables.class
com\shpp\pzobenko\validator\nameofgoods\ValidateDTONameOfGoods.class
com\shpp\pzobenko\validator\addresses\ValidateDTOAddressOfGoods.class
com\shpp\pzobenko\validator\category\ValidateDTOCategoryOfGoods.class
com\shpp\pzobenko\dto\DataTransferObject.class
com\shpp\pzobenko\dtogeneratingandvalidation\DTOValidate.class
